module service

go 1.20

require (
	github.com/go-openapi/errors v0.22.0
	github.com/go-openapi/loads v0.22.0
	github.com/go-openapi/runtime v0.28.0
	github.com/go-openapi/spec v0.21.0
	github.com/go-openapi/strfmt v0.23.0
	github.com/go-openapi/swag v0.23.0
	github.com/go-yaml/yaml v2.1.0+incompatible
	github.com/jessevdk/go-flags v1.5.0
	github.com/lib/pq v1.10.9
	github.com/mattn/go-colorable v0.1.13
	github.com/pkg/errors v0.9.1
	github.com/sirupsen/logrus v1.9.3
	github.com/snowzach/rotatefilehook v0.0.0-20220211133110-53752135082d
	github.com/stretchr/testify v1.9.0
	golang.org/x/net v0.25.0
)

require (
	github.com/asaskevich/govalidator v0.0.0-20230301143203-a9d515a09cc2 // indirect
	github.com/davecgh/go-spew v1.1.1 // indirect
	github.com/docker/go-units v0.5.0 // indirect
	github.com/go-openapi/analysis v0.23.0 // indirect
	github.com/go-openapi/jsonpointer v0.21.0 // indirect
	github.com/go-openapi/jsonreference v0.21.0 // indirect
	github.com/go-openapi/validate v0.24.0 // indirect
	github.com/google/uuid v1.6.0 // indirect
	github.com/josharian/intern v1.0.0 // indirect
	github.com/mailru/easyjson v0.7.7 // indirect
	github.com/mattn/go-isatty v0.0.16 // indirect
	github.com/mitchellh/mapstructure v1.5.0 // indirect
	github.com/oklog/ulid v1.3.1 // indirect
	github.com/pmezard/go-difflib v1.0.0 // indirect
	go.mongodb.org/mongo-driver v1.14.0 // indirect
	golang.org/x/sync v0.6.0 // indirect
	golang.org/x/sys v0.20.0 // indirect
	gopkg.in/natefinch/lumberjack.v2 v2.2.1 // indirect
	gopkg.in/yaml.v2 v2.4.0 // indirect
	gopkg.in/yaml.v3 v3.0.1 // indirect
)
